{
  "data": [
    {
      "id": "126",
      "type": "proposals",
      "attributes": {
        "title": "Webdesign yourwebsite.com",
        "account_id": 3,
        "status": "draft",
        "public_id": "-NqDAkiqpiFLuuw",
        "prepared_by_id": 3,
        "client_id": 5,
        "sender_id": null
      },
      "relationships": {
        "sections": {
          "data": [
            {
              "id": "414",
              "type": "sections"
            }
          ]
        }
      }
    }
  ],
  "meta": {
    "current_page": 2,
    "next_page": 3,
    "prev_page": 1,
    "total_pages": 4,
    "total_count": 89
  }
}